(module fab-SPDTSWITCH (layer F.Cu) (tedit 200000)
  (attr smd)
  (fp_text reference >NAME (at -0.635 -3.175) (layer F.SilkS)
    (effects (font (size 1.27 1.27) (thickness 0.1016)))
  )
  (fp_text value "" (at 0 0) (layer F.SilkS)
    (effects (font (size 1.27 1.27) (thickness 0.15)))
  )
  (pad 1 smd rect (at 0.37846 -2.54) (size 2.54 1.27) (layers F.Cu F.Paste F.Mask))
  (pad 2 smd rect (at 0.37846 0) (size 2.54 1.27) (layers F.Cu F.Paste F.Mask))
  (pad 3 smd rect (at 0.37846 2.54) (size 2.54 1.27) (layers F.Cu F.Paste F.Mask))
)
