(module fab-2X03SMD (layer F.Cu) (tedit 5DC0ADA4)
  (attr smd)
  (fp_text reference >NAME (at -0.635 -4.445) (layer F.SilkS)
    (effects (font (size 1.27 1.27) (thickness 0.1016)))
  )
  (fp_text value >VALUE (at 0 4.445) (layer F.SilkS)
    (effects (font (size 1.27 1.27) (thickness 0.1016)))
  )
  (pad 1 smd rect (at -2.54 -2.54) (size 2.54 1) (layers F.Cu F.Paste F.Mask))
  (pad 2 smd rect (at 2.91846 -2.54) (size 2.54 1) (layers F.Cu F.Paste F.Mask))
  (pad 3 smd rect (at -2.54 0) (size 2.54 1) (layers F.Cu F.Paste F.Mask))
  (pad 4 smd rect (at 2.91846 0) (size 2.54 1) (layers F.Cu F.Paste F.Mask))
  (pad 5 smd rect (at -2.54 2.54) (size 2.54 1) (layers F.Cu F.Paste F.Mask))
  (pad 6 smd rect (at 2.91846 2.54) (size 2.54 1) (layers F.Cu F.Paste F.Mask))
)
