(module fab-1X06SMD (layer F.Cu) (tedit 200000)
  (attr smd)
  (fp_text reference >NAME (at -2.54 0 90) (layer F.SilkS)
    (effects (font (size 1.27 1.27) (thickness 0.1016)))
  )
  (fp_text value "" (at 0 0) (layer F.SilkS)
    (effects (font (size 1.27 1.27) (thickness 0.15)))
  )
  (pad 1 smd rect (at 0 -6.35) (size 2.54 1.27) (layers F.Cu F.Paste F.Mask))
  (pad 2 smd rect (at 0 -3.81) (size 2.54 1.27) (layers F.Cu F.Paste F.Mask))
  (pad 3 smd rect (at 0 -1.27) (size 2.54 1.27) (layers F.Cu F.Paste F.Mask))
  (pad 4 smd rect (at 0 1.27) (size 2.54 1.27) (layers F.Cu F.Paste F.Mask))
  (pad 5 smd rect (at 0 3.81) (size 2.54 1.27) (layers F.Cu F.Paste F.Mask))
  (pad 6 smd rect (at 0 6.35) (size 2.54 1.27) (layers F.Cu F.Paste F.Mask))
)
